Olympics_EDA
…
#Create New_data Adding Total Number of Medals

# A tibble: 19,634 x 20
# Groups:   Year [21]
    Year NOC.Int Decade   Sex   Age Height Weight   BMI BMI.Category Population
   <int>   <dbl> <fct>  <dbl> <int>  <int>  <dbl> <dbl>        <int>      <int>
 1  2008       1 2000s      2    21    183     63  18.8            2   27722276
 2  2012       1 2010s      2    25    183     63  18.8            2   31161376
 3  1960       4 1960s      2    45    175     75  24.5            2   20481779
 4  1960       4 1960s      2    41    174     86  28.4            3   20481779
 5  1960       4 1960s      2    46    170     72  24.9            2   20481779
 6  1960       4 1960s      2    21    168     60  21.3            2   20481779
 7  1964       4 1960s      2    34    170     65  22.5            2   21824425
 8  1968       4 1960s      2    22    164     67  24.9            2   23168267
 9  1968       4 1960s      2    24    184     88  26.0            3   23168267
10  1972       4 1970s      2    28    184     88  26.0            3   24653175
# ... with 19,624 more rows, and 10 more variables: GDP <dbl>, GDPpC <dbl>,
#   Games <fct>, Season <fct>, City <fct>, Sport <fct>, Event <fct>,
#   Medal <fct>, Medal.No.Yes <int>, TMedals <int>
…
# A tibble: 4,140 x 3
# Groups:   Year [21]
    Year Event                                           TEvent
   <int> <fct>                                            <int>
 1  2008 Taekwondo Men's Flyweight                            3
 2  2012 Taekwondo Men's Featherweight                        3
 3  1960 Sailing Mixed Three Person Keelboat                  6
 4  1960 Boxing Men's Lightweight                             4
 5  1964 Equestrianism Mixed Three-Day Event, Individual      2
 6  1968 Boxing Men's Welterweight                            2
 7  1968 Rowing Men's Single Sculls                           1
 8  1972 Rowing Men's Single Sculls                           1
 9  1988 Tennis Women's Singles                               2
10  1988 Volleyball Men's Volleyball                         24
# ... with 4,130 more rows
…
